Replication Code and Robustness Checks
…
Replication data

Code

load(here::here("data", "corr_counts.Rdata"))
load(here::here("data", "members.Rdata"))

corr_counts  %<>% filter(year > 2006, year < 2021)

members

# A tibble: 6,566 × 45
   chamber  congress bioname pattern first_name last_name id    icpsr party_code
   <chr>       <dbl> <chr>   <chr>   <chr>      <chr>     <chr> <dbl>      <int>
 1 Preside…      108 BUSH, … "georg… George     BUSH      MP10… 99910        200
 2 House         108 DEAL, … "john … John       DEAL      MH10… 99342        200
 3 Senate        108 CAMPBE… "ben c… Ben        CAMPBELL  MS10… 95407        200
 4 House         108 HALL, … "ralph… Ralph      HALL      MH10… 94828        200
 5 House         108 TAUZIN… "wilbe… Wilbert    TAUZIN    MH10… 94679        200
 6 Senate        108 SHELBY… "richa… Richard    SHELBY    MS10… 94659        200
 7 Senate        108 JEFFOR… "james… James      JEFFORDS  MS10… 94240        328
 8 House         108 GOODE,… "virgi… Virgil     GOODE     MH10… 89767        200
 9 Senate        108 CHAFEE… "linco… Lincoln    CHAFEE    MS10… 49905        200
10 Senate        108 MILLER… "zell … Zell       MILLER    MS10… 49904        100
# ℹ 6,556 more rows
# ℹ 36 more variables: cqlabel <chr>, state <chr>, state_abbrev <chr>,
#   bioImgURL <chr>, seo_name <chr>, district_code <int>, party_name <chr>,
#   nominate.dim2 <dbl>, nominate.dim1 <dbl>,
#   nominate.geo_mean_probability <dbl>, party_size <int>, last <chr>,
#   last_first <chr>, pop2017 <chr>, pop2010 <int>,
#   state_pop2010_millions <dbl>, party <chr>, member_party <chr>, …
…
